Get datasets informations — datasets • didor
…
    Arguments

    data
a datafiles tibble (as returned by the datafiles() function)
or NULL (default)

    Value

a tibble of datasets information

    Examples

datasets()
#> # A tibble: 21 × 21
#>    id          title descr…¹ topic tags  license frequ…² frequ…³ creat…⁴ last_…⁵
#>    <chr>       <chr> <chr>   <chr> <chr> <chr>   <chr>   <chr>   <chr>   <chr>  
#>  1 631b03afb6… Conj… "Princ… Éner… conj… fr-lo   monthly 2023-0… 2022-0… 2023-0…
#>  2 63ecb0418b… Donn… "Les d… Loge… ecln… fr-lo   quarte… 2023-0… 2023-0… 2023-0…
#>  3 63ecb013d3… Donn… "Les d… Loge… ecln… fr-lo   quarte… 2023-0… 2023-0… 2023-0…
#>  4 63ecaef1c2… Donn… "Les d… Loge… ecln… fr-lo   quarte… 2023-0… 2023-0… 2023-0…
#>  5 632956d8ea… Indi… "Pour … Envi… deve… fr-lo   annual  2023-0… 2022-0… 2023-0…
#>  6 63ecafe2c2… Donn… "Les d… Loge… ecln… fr-lo   quarte… 2023-0… 2023-0… 2023-0…
#>  7 63b8281ec1… Donn… "Ces d… Loge… cons… fr-lo   annual  2023-1… 2023-0… 2023-0…
#>  8 62792fb07c… Qual… "Ce je… Envi… air,… fr-lo   annual  2023-1… 2022-0… 2023-0…
#>  9 610244a997… Donn… "Donné… Éner… cons… fr-lo   annual  2022-1… 2021-0… 2022-1…
#> 10 610244c9e4… Donn… "Donné… Éner… chal… fr-lo   annual  2021-1… 2021-0… 2022-1…
#> # … with 11 more rows, 11 more variables: weburl <chr>, views <int>,
#> #   caution <chr>, organization_id <chr>, organization_title <chr>,
#> #   organization_description <chr>, organization_acronym <chr>,
#> #   temporal_coverage_start <chr>, temporal_coverage_end <chr>,
#> #   spatial_zones <chr>, spatial_granularity <chr>, and abbreviated variable
#> #   names ¹​description, ²​frequency, ³​frequency_date, ⁴​created_at,
#> #   ⁵​last_modified
…
