Get last millesime — last_millesime • didor
…
last_millesime(data)

    Arguments

    data
a datafiles tibble (as returned by the datafiles() function)

    Value

a tibble with the last millesimes for all input datafiles

    Examples

datafiles() %>% last_millesime()
#> # A tibble: 124 × 10
#>    rid         id    mille…¹ date_…² weburl   rows columns exten…³ geoFi…⁴ refs 
#>    <chr>       <chr> <chr>   <chr>   <chr>   <int> <list>  <list>  <chr>   <chr>
#>  1 0018cbe0-c… 63ec… 2023-02 2023-0… https… 3.6 e2 <df>    <list>  ""      ""   
#>  2 005fa4ec-7… 631b… 2023-03 2023-0… https… 5.17e2 <df>    <list>  ""      ""   
#>  3 0171f12e-a… 6315… 2022-05 2022-0… https… 1.56e4 <df>    <df>    "DEP"   "ref…
#>  4 039fb42a-e… 63ec… 2023-02 2023-0… https… 6   e1 <df>    <list>  ""      ""   
#>  5 04be4886-e… 631b… 2023-03 2023-0… https… 5.3 e2 <df>    <list>  ""      ""   
#>  6 0b83eee4-1… 6390… 2022-01 2022-1… https… 5.27e6 <df>    <df>    "REG,D… "c(\…
#>  7 0bf930dc-b… 631b… 2023-03 2023-0… https… 5.3 e2 <df>    <list>  ""      ""   
#>  8 0d1ac244-0… 6102… 2021-10 2022-0… https… 1.31e5 <df>    <df>    "IRIS"  "ref…
#>  9 0dcbc5ca-8… 63ec… 2023-02 2023-0… https… 9.6 e1 <df>    <list>  ""      ""   
#> 10 0ded317c-b… 6102… 2021-10 2022-0… https… 2.48e5 <df>    <df>    "IRIS"  "ref…
#> # … with 114 more rows, and abbreviated variable names ¹​millesime,
#> #   ²​date_diffusion, ³​extendedFilters, ⁴​geoFields
…
