Premiers pas • didor
…
Les variables sont toutes de type chr. Pour convertir
ces données :

convert(data)
#> # A tibble: 60 × 13
#>    ANNEE MOIS    SUPER_SANS_PLOMB SUPER_SANS_PLOMB_95 SUPER_SANS_PLOMB_95_E10
#>    <chr> <chr>              <dbl>               <dbl>                   <dbl>
#>  1 2017  2017-11          583671              206971                  237447 
#>  2 2018  2018-04          652732              221168                  268552 
#>  3 2017  2017-01          516331              197700                  204431 
#>  4 2018  2018-02          529209              181969                  224800 
#>  5 2019  2019-10          735286.             197210.                 355883.
#>  6 2020  2020-05          437681.             112377.                 198083.
#>  7 2020  2020-06          667434.             164916.                 317289.
#>  8 2021  2021-06          798671.             182106.                 397610.
#>  9 2017  2017-09          683669              251555                  263472 
#> 10 2017  2017-10          608773              216741                  241231 
#> # ℹ 50 more rows
#> # ℹ 8 more variables: SUPER_SANS_PLOMB_98 <dbl>, SUPER_ETH_E85 <dbl>,
#> #   GAZOLE <dbl>, FOD <dbl>, FOL <dbl>, GNR <dbl>, GPL <dbl>,
#> #   CARBUREACTEUR <dbl>
…
